{
  "tv": {
    "page": 1,
    "results": [
      {
        "adult": false,
        "backdrop_path": "/8zbAoryWbtH0DKdev8abFAjdufy.jpg",
        "genre_ids": [10765, 9648, 10759],
        "id": 66732,
        "origin_country": ["US"],
        "original_language": "en",
        "original_name": "Stranger Things",
        "overview": "인디애나주의 작은 마을에서 행방불명된 소년. 이와 함께 미스터리한 힘을 가진 소녀가 나타나고, 마을에는 기묘한 현상들이 일어나기 시작한다. 아들을 찾으려는 엄마와 마을 사람들은 이제 정부의 일급비밀 실험의 실체와 무시무시한 기묘한 현상들에 맞서야 한다.",
        "popularity": 442.5436,
        "poster_path": "/mpOQpOKdo2XJnTqRzo1lTmDNsc1.jpg",
        "first_air_date": "2016-07-15",
        "name": "기묘한 이야기",
        "vote_average": 8.581,
        "vote_count": 20405
      },
      {
        "adult": false,
        "backdrop_path": "/7mkUu1F2hVUNgz24xO8HPx0D6mK.jpg",
        "genre_ids": [18, 10765, 10759],
        "id": 224372,
        "origin_country": ["US"],
        "original_language": "en",
        "original_name": "A Knight of the Seven Kingdoms",
        "overview": "왕좌의 게임이 일어나기 백여 년 전, 타르가르옌 가문이 철왕좌를 지키고, 최후의 드래곤에 대한 기억이 살아 있던 시절. 웨스테로스를 떠돌던 영웅이 있었다. 젊고 순진하지만 용맹한 기사 던칸 경과 그의 작은 종자 에그. 이 둘의 앞엔 운명과 강적, 그리고 모험이 기다리고 있는데.",
        "popularity": 317.2243,
        "poster_path": "/6igvNs5VJB4ryBLgjjXksDVs0Fm.jpg",
        "first_air_date": "2026-01-18",
        "name": "세븐킹덤의 기사",
        "vote_average": 8.158,
        "vote_count": 98
      },
      {
        "adult": false,
        "backdrop_path": "/6iNWfGVCEfASDdlNb05TP5nG0ll.jpg",
        "genre_ids": [80, 18, 35],
        "id": 79744,
        "origin_country": ["US"],
        "original_language": "en",
        "original_name": "The Rookie",
        "overview": "이혼 후 은행 강도를 당한 일을 계기로 LAPD에 지원한 40세의 최고령 신입을 중심으로 펼쳐지는 이야기",
        "popularity": 244.7109,
        "poster_path": "/7LUiqnZFX9JXYZtRpzv8n7taKV.jpg",
        "first_air_date": "2018-10-16",
        "name": "더 루키",
        "vote_average": 8.533,
        "vote_count": 2908
      },
      {
        "adult": false,
        "backdrop_path": "/obtdxPgmfykYwVnvuYXC5f2xKlQ.jpg",
        "genre_ids": [80, 18, 9648],
        "id": 2734,
        "origin_country": ["US"],
        "original_language": "en",
        "original_name": "Law & Order: Special Victims Unit",
        "overview": "추악한 성범죄를 수사하는 뉴욕 경찰 성범죄전담수사반의 활약을 그린 드라마.",
        "popularity": 228.1307,
        "poster_path": "/iofokHZoUB4Qhik4PflvJl8TT6a.jpg",
        "first_air_date": "1999-09-20",
        "name": "로 앤 오더: 성범죄전담반",
        "vote_average": 7.936,
        "vote_count": 4104
      },
      {
        "adult": false,
        "backdrop_path": "/lDmFwAaHL1kXnAfZeUTieAdUTko.jpg",
        "genre_ids": [10765, 10759, 10751, 18],
        "id": 235685,
        "origin_country": ["US"],
        "original_language": "en",
        "original_name": "The Pendragon Cycle: Rise of the Merlin",
        "overview": "",
        "popularity": 198.1087,
        "poster_path": "/jJfk8NXauN4UgFQ1qn9lFzEk7ib.jpg",
        "first_air_date": "2026-01-22",
        "name": "The Pendragon Cycle: Rise of the Merlin",
        "vote_average": 8.1,
        "vote_count": 10
      },
      {
        "adult": false,
        "backdrop_path": "/ro0tlgnsco4SwbdAgmscLkSlMSL.jpg",
        "genre_ids": [18, 9648, 10765],
        "id": 1622,
        "origin_country": ["US"],
        "original_language": "en",
        "original_name": "Supernatural",
        "overview": "어린 시절, 샘과 딘은 정체를 알 수 없는 악마의 힘의 의해 어머니를 잃는다. 그로 인해, 그들의 아버지는 자식들을 헌터로 키우며, 미국 각지에 흩어져 있는 초자연적인 악과 괴물들을 처치하는 법을 가르친다.\n\n이제 두 윈체스터 형제들은 67년형 쉐비 임팔라에 몸을 싣고 미전역을 가로지르며 그들과 마주치는 모든 초자연적인 위협들을 처리해나가기 시작하는데...",
        "popularity": 168.591,
        "poster_path": "/dpkz4yiXoaYvYP2WoRP09UmrAh6.jpg",
        "first_air_date": "2005-09-13",
        "name": "수퍼내추럴",
        "vote_average": 8.304,
        "vote_count": 8191
      },
      {
        "adult": false,
        "backdrop_path": "/jP0Rhj9OTPDAwQlHQwOLFDdeE8t.jpg",
        "genre_ids": [18],
        "id": 1416,
        "origin_country": ["US"],
        "original_language": "en",
        "original_name": "Grey's Anatomy",
        "overview": "시애틀에 있는 병원 의사들의 삶에 대한 이야기. 의사로서의 감정과 개인적인 감정에 대한 묘사가 적절히 조화를 이루어 그려진다. 인턴이지만 결국 레지던트가 되는 메러디스 그레이는 시애틀 병원의 동료 의사들과 함께 사적, 직업적인 열정에 휩쓸리는 자신을 발견한다.",
        "popularity": 203.4666,
        "poster_path": "/lCUvpSvjAPU82HvJ8XfR74Chv5r.jpg",
        "first_air_date": "2005-03-27",
        "name": "그레이 아나토미",
        "vote_average": 8.212,
        "vote_count": 10750
      },
      {
        "adult": false,
        "backdrop_path": "/gmECX1DvFgdUPjtio2zaL8BPYPu.jpg",
        "genre_ids": [16, 10759, 10765],
        "id": 95479,
        "origin_country": ["JP"],
        "original_language": "ja",
        "original_name": "呪術廻戦",
        "overview": "소년은 싸운다 '올바른 죽음'을 위해  쓰라린 고통, 후회, 치욕. 인간으로부터 흘러나온 부정적인 감정이 저주로 변해 일상에 숨어든다. 저주는 세상에 만연한 재앙의 근원이며, 최악의 경우 인간을 죽음으로 이끈다. 그리고 저주는 저주로밖에 없앨 수 없다.  경이적인 신체능력을 가진 소년 이타도리 유지는 아주 평범한 고등학생이었지만, 어느 날 '저주'에 습격당한 친구를 구하기 위해 특급 주물 '양면 스쿠나의 손가락'을 먹고 영혼에 저주가 깃들게 된다. 저주인 '양면 스쿠나'와 몸을 공유하게 된 이타도리는 최강의 주술사인 고죠 사토루의 안내로 저주에 대항하는 전문 기관인 '도쿄 도립 주술 고등전문학교'에 편입하게 되는데... 저주를 없애기 위해 저주가 된 소년의 돌이킬 수 없는 장렬한 이야기가 움직이기 시작한다.",
        "popularity": 190.5937,
        "poster_path": "/pnn223i9v5kfYku6TbqdSbPePJp.jpg",
        "first_air_date": "2020-10-03",
        "name": "주술회전",
        "vote_average": 8.6,
        "vote_count": 4129
      },
      {
        "adult": false,
        "backdrop_path": "/jvTeRgjFsp66xj8SWxhr7O2J4ud.jpg",
        "genre_ids": [10751, 16, 35],
        "id": 456,
        "origin_country": ["US"],
        "original_language": "en",
        "original_name": "The Simpsons",
        "overview": "1989년 12월 FOX에서 방영을 시작한 애니메이션. 미국의 스프링필드를 배경으로 먹는 걸 유난히 밝히고 게으르며 독특한 성격의 가장 호머, 항상 사고만 치고 다니는 남편과 아이들의 뒤치다꺼리를 도맡아 하는 엄마 마지, 하루라도 장난을 치지 않고 넘어가는 날이 없는 장난꾸러기 아들 바트, 나이에 비해 꽤나 어른스럽고 똑똑한 리사, 그리고 말은 한마디도 못하지만 의외의 대활약을 보여주는 막내 메기 등 각각의 개성 만점 가족 구성원들이 펼치는 극적인 하루하루를 그리고 있다.",
        "popularity": 186.8979,
        "poster_path": "/7HKQieF8YqXgTwBVjWFGWaEKNS7.jpg",
        "first_air_date": "1989-12-17",
        "name": "심슨 가족",
        "vote_average": 8.011,
        "vote_count": 10545
      },
      {
        "adult": false,
        "backdrop_path": "/nn3SuLTO4hum8yAxaY4ql8h6kRk.jpg",
        "genre_ids": [80, 18, 10759],
        "id": 4614,
        "origin_country": ["US"],
        "original_language": "en",
        "original_name": "NCIS",
        "overview": "NCIS는 미국의 수사드라마 시리즈로 미해군과 해병대 관련 범죄수사를 담당하는 가상의 해군범죄수사대에 관한 드라마.",
        "popularity": 167.8316,
        "poster_path": "/mBcu8d6x6zB1el3MPNl7cZQEQ31.jpg",
        "first_air_date": "2003-09-23",
        "name": "NCIS",
        "vote_average": 7.618,
        "vote_count": 2441
      },
      {
        "adult": false,
        "backdrop_path": "/zZqpAXxVSBtxV9qPBcscfXBcL2w.jpg",
        "genre_ids": [10765, 18, 10759],
        "id": 1399,
        "origin_country": ["US"],
        "original_language": "en",
        "original_name": "Game of Thrones",
        "overview": "2011년 4월 HBO에서 방영을 시작한 판타지물. 조지 R.R. 마틴의 얼음과 불의 노래를 원작으로 한다. 웨스테로스 대륙의 7개의 국가와 하위 몇 개의 국가들로 구성된 연맹 국가인 칠 왕국의 통치권, 철 왕좌를 차지하기 위한 싸움을 그려낸 드라마이다. 왕좌를 차지하기 위한 귀족 가문의 다툼 외에도 북부에 존재하는 미지의 위협인 백귀, 그리고 15년 전에 내전으로 인해 살해된 왕의 딸인 대너리스 타르가르옌이 자신이 추방당한 웨스테로스를 향해 왕권 회복을 도전하는 이야기가 함께 들어있다.",
        "popularity": 164.3498,
        "poster_path": "/zmK5G0JdkL637VbaVPYFeEQ52qi.jpg",
        "first_air_date": "2011-04-17",
        "name": "왕좌의 게임",
        "vote_average": 8.5,
        "vote_count": 26139
      },
      {
        "adult": false,
        "backdrop_path": "/wIysQFRoro0DsNRMjFUoiTxbt5.jpg",
        "genre_ids": [18, 10759],
        "id": 240459,
        "origin_country": ["US"],
        "original_language": "en",
        "original_name": "Spartacus: House of Ashur",
        "overview": "",
        "popularity": 151.4347,
        "poster_path": "/vNByuzy60v31nmUVPMA8oAtneUK.jpg",
        "first_air_date": "2025-12-05",
        "name": "스파르타쿠스: 하우스 오브 아슈르",
        "vote_average": 6.362,
        "vote_count": 138
      },
      {
        "adult": false,
        "backdrop_path": "/cIgHBLTMbcIkS0yvIrUUVVKLdOz.jpg",
        "genre_ids": [10759, 10765],
        "id": 106379,
        "origin_country": ["US"],
        "original_language": "en",
        "original_name": "Fallout",
        "overview": "역사상 가장 위대한 비디오 게임 시리즈로 손꼽히는 '폴아웃'을 원작으로 한 드라마. 거의 아무것도 남지 않는 세상에 사는 가진 자와 가진 것이 없는 자들의 이야기다. 세상이 종말을 맞이한 지 200년이 지난 어느 날, 아늑한 대피소에서 살다가 어쩔 수 없이 세상 밖으로 나오게 된, 평화를 사랑하는 주인공이 자신 앞에 펼쳐진 황무지를 발견하곤 충격을 받는다.",
        "popularity": 144.5369,
        "poster_path": "/eMUCkjsssPhdEljb4fegsYdBXlI.jpg",
        "first_air_date": "2024-04-10",
        "name": "폴아웃",
        "vote_average": 8.144,
        "vote_count": 2432
      },
      {
        "adult": false,
        "backdrop_path": "/luUTaPpTBM8BjP4wgCLxNIPkx6k.jpg",
        "genre_ids": [10759, 18],
        "id": 19530,
        "origin_country": ["TW", "CN"],
        "original_language": "zh",
        "original_name": "霹靂布袋戲",
        "overview": "",
        "popularity": 157.885,
        "poster_path": "/sBVfyRYPmKSARRTodsTbwHqgcRA.jpg",
        "first_air_date": "1988-06-01",
        "name": "霹靂布袋戲",
        "vote_average": 6.9,
        "vote_count": 7
      },
      {
        "adult": false,
        "backdrop_path": "/r0Q6eeN9L1ORL9QsV0Sg8ZV3vnv.jpg",
        "genre_ids": [18, 35, 9648],
        "id": 1408,
        "origin_country": ["US"],
        "original_language": "en",
        "original_name": "House",
        "overview": "2004년 11월 FOX에서 방영을 시작한 미스터리 의학 시리즈. 프린스턴 플레인즈보로 대학병원의 진단의학과 과장인 그레고리 하우스는 환자들을 성심성의껏 돌보는 데는 영 꽝인 의사. 사사건건 병원 원장인 리사 커디와 부딪히는 그는 못된 매너와 그 매너를 더욱 돋보이게 하는 외모로 유명하지만, 또한 창조적인 생각과 결점없는 의학적 본능을 유감없이 발휘하는 최고의 의사이기도 하다. 천재적인 분석능력을 갖춘 전염병 전문의로서 그가 이제 인명을 살리기 위한 흥미롭고 미스터리한 의학의 퍼즐을 풀어간다.",
        "popularity": 143.1198,
        "poster_path": "/3Cz7ySOQJmqiuTdrc6CY0r65yDI.jpg",
        "first_air_date": "2004-11-16",
        "name": "하우스",
        "vote_average": 8.579,
        "vote_count": 7287
      },
      {
        "adult": false,
        "backdrop_path": "/tc7canPSAn2X14hYi6Rl3gZm1o4.jpg",
        "genre_ids": [80, 18],
        "id": 549,
        "origin_country": ["US"],
        "original_language": "en",
        "original_name": "Law & Order",
        "overview": "추악한 성범죄자를 쫓아 사건을 해결하는 특별수사단의 통쾌한 활약을 그린 수사시리즈",
        "popularity": 130.7997,
        "poster_path": "/haJ9eHytVO3H3JooMJG1DiWwDNm.jpg",
        "first_air_date": "1990-09-13",
        "name": "로 앤 오더",
        "vote_average": 7.356,
        "vote_count": 661
      },
      {
        "adult": false,
        "backdrop_path": "/w88B4ooZ2LSYPw5107JOkjvI8PI.jpg",
        "genre_ids": [80, 18, 9648],
        "id": 4057,
        "origin_country": ["US"],
        "original_language": "en",
        "original_name": "Criminal Minds",
        "overview": "FBI 프로파일러로 구성된 정예 팀이 미국에서 가장 뒤틀린 범죄자들의 심리를 분석하고, 범죄를 또 저지르기 전에 다음 수를 예측한다. 팀원들은 함께 성장하며, 이 행동 분석팀은 전문 지식으로 범죄자의 동기를 찾아내고 범죄를 저지하는 노력을 계속한다.",
        "popularity": 118.6054,
        "poster_path": "/A5hvLZpYcpT2GFA3j8LtI6eINFr.jpg",
        "first_air_date": "2005-09-22",
        "name": "크리미널 마인드",
        "vote_average": 8.3,
        "vote_count": 3984
      },
      {
        "adult": false,
        "backdrop_path": "/f3cin9kOz4nOrlYEMxGFQhv4bdN.jpg",
        "genre_ids": [18],
        "id": 71712,
        "origin_country": ["US"],
        "original_language": "en",
        "original_name": "The Good Doctor",
        "overview": "자폐증을 가진 젊은 외과 의사가 명문 병원에 들어가게된다. 이에 사람들과 소통하지 못하는 의사가 사람의 목숨을 구할 수 있을 까 하는 의문이 제기되는데...",
        "popularity": 132.4085,
        "poster_path": "/luhKkdD80qe62fwop6sdrXK9jUT.jpg",
        "first_air_date": "2017-09-25",
        "name": "굿 닥터",
        "vote_average": 8.5,
        "vote_count": 12712
      },
      {
        "adult": false,
        "backdrop_path": "/5s9XHTB9SLPdg3mNU6BlSLnZ9Qq.jpg",
        "genre_ids": [18, 35],
        "id": 34307,
        "origin_country": ["US"],
        "original_language": "en",
        "original_name": "Shameless",
        "overview": "미국 시카고 후미진 마을에서 힘겹게 살고 있는 싱글 대디 프랭크와 총명하고 독립적인 그의 여섯 자녀들의 리얼한 이야기",
        "popularity": 128.1929,
        "poster_path": "/9ZTivNsXHQWVq578CIsvsM5zd08.jpg",
        "first_air_date": "2011-01-09",
        "name": "쉐임리스",
        "vote_average": 8.169,
        "vote_count": 3171
      },
      {
        "adult": false,
        "backdrop_path": "/2eIlCirgcvEwmCSYh2wDfz5Sxvz.jpg",
        "genre_ids": [18, 80, 9648],
        "id": 46952,
        "origin_country": ["US"],
        "original_language": "en",
        "original_name": "The Blacklist",
        "overview": "FBI 10대 수배범에 올라가있는 거물 범죄 브로커 레이먼드 레딩턴이 어느날 갑자기 FBI 본부에 나타나 자수를 한다. 그러면서 레딩턴은 자신이 1급 범죄자들의 블랙리스트를 가지고 있다면서 사법거래를 요구하고 그 조건으로 FBI의 신참 프로파일러인 엘리자베스 킨하고만 이야기 하겠다고 요구한다. 한편 암에 걸린 양아버지를 두면서 남편과 함께 아기의 입양을 꿈꾸며 행복하게 살고 있던 엘리자베스의 삶은 레딩턴과의 만남과 우연히 발견하게 된 남편의 가짜 여권들을 통해 급변하게 되는데...",
        "popularity": 122.2889,
        "poster_path": "/4HTfd1PhgFUenJxVuBDNdLmdr0c.jpg",
        "first_air_date": "2013-09-23",
        "name": "블랙리스트",
        "vote_average": 7.638,
        "vote_count": 3464
      }
    ],
    "total_pages": 10682,
    "total_results": 213628
  },
  "movie": {
    "page": 1,
    "results": [
      {
        "adult": false,
        "backdrop_path": "/3F2EXWF1thX0BdrVaKvnm6mAhqh.jpg",
        "genre_ids": [28, 53, 80],
        "id": 1306368,
        "original_language": "en",
        "original_title": "The Rip",
        "overview": "허름한 은닉처에서 수백만 달러의 현금을 발견한 마이애미 경찰. 신뢰에 금이 가기 시작하면서 모든 사람, 모든 것이 의심의 대상이 된다.",
        "popularity": 483.0807,
        "poster_path": "/o0d6Us9VWOW0nHhoB7ZNIwigARG.jpg",
        "release_date": "2026-01-13",
        "title": "더 립",
        "video": false,
        "vote_average": 7.056,
        "vote_count": 683
      },
      {
        "adult": false,
        "backdrop_path": "/AecGG1XVCmkk7fT10ko3FC0dLIP.jpg",
        "genre_ids": [28, 14, 53],
        "id": 1043197,
        "original_language": "en",
        "original_title": "Dust Bunny",
        "overview": "“어른도 아이도 함께하는 몬스터 사냥 이야기”  열 살 소녀 오로라는 침대 밑에 숨어 있다고 믿는 정체불명의 괴물 때문에 자신의 가족이 사라졌다고 믿는다. 아무도 그녀의 말을 믿어주지 않자, 오로라는 복도를 사이에 둔 신비로운 이웃 - 몬스터 -를 사냥하는 것으로 보이는 청부살인업자에게 도움을 청한다. 그는 처음엔 의심하면서도 그녀의 부탁을 받아들이고, 두 사람은 함께 진짜 괴물과 맞서며 이들이 마주한 위험한 세상과 서로의 상처를 이해해 가게 되는데…",
        "popularity": 378.7072,
        "poster_path": "/vobigFZFvbYPf6ElYJu07P9rH8C.jpg",
        "release_date": "2025-12-11",
        "title": "더스트 바니",
        "video": false,
        "vote_average": 6.766,
        "vote_count": 93
      },
      {
        "adult": false,
        "backdrop_path": "/ebyxeBh56QNXxSJgTnmz7fXAlwk.jpg",
        "genre_ids": [28, 878, 12],
        "id": 1242898,
        "original_language": "en",
        "original_title": "Predator: Badlands",
        "overview": "프레데터로서 존재를 증명하기 위해 우주에서 가장 위험한 행성으로 첫 사냥에 나선 덱. 죽음의 땅에 도사린 모든 것으로부터 공격을 받던 순간, 휴머노이드 티아를 만난다. 최상위 포식자 칼리스크에 맞서게 된 둘은 생존과 각자의 목적을 위해 극한의 사투를 벌이게 되는데…",
        "popularity": 266.6882,
        "poster_path": "/8lpCbwbYh9SSzCFsHDndZHKrcD4.jpg",
        "release_date": "2025-11-05",
        "title": "프레데터: 죽음의 땅",
        "video": false,
        "vote_average": 7.776,
        "vote_count": 1618
      },
      {
        "adult": false,
        "backdrop_path": "/u8DU5fkLoM5tTRukzPC31oGPxaQ.jpg",
        "genre_ids": [878, 12, 14],
        "id": 83533,
        "original_language": "en",
        "original_title": "Avatar: Fire and Ash",
        "overview": "인간들과의 전쟁으로 첫째 아들 ‘네테이얌’을 잃은 후, ‘제이크’와 ‘네이티리’는 깊은 슬픔에 빠진다. 상실에 빠진 이들 앞에 '바랑'이 이끄는 재의 부족이 등장하면서, 판도라는 더욱 큰 위험에 빠지게 되고, ‘설리’ 가족은 선택의 기로에 서게 되는데…",
        "popularity": 264.9358,
        "poster_path": "/l18o0AK18KS118tWeROOKYkF0ng.jpg",
        "release_date": "2025-12-17",
        "title": "아바타: 불과 재",
        "video": false,
        "vote_average": 7.326,
        "vote_count": 1585
      },
      {
        "adult": false,
        "backdrop_path": "/gbjK8p5S1aLXWCwOoXqr9aWZvqG.jpg",
        "genre_ids": [16, 10751, 35, 12, 14],
        "id": 991494,
        "original_language": "en",
        "original_title": "The SpongeBob Movie: Search for SquarePants",
        "overview": "비키니시티에 사는 스폰지밥은 무시무시한 롤러코스터를 탈 수 있는 용감한 ‘빅 가이’가 꿈이다. 그러던 어느 날, 미지의 세계 ‘언더월드’에 사는 유령선장을 만나 ‘용감무쌍짱 증명서’를 받으면 진정한 ‘빅 가이’가 될 수 있다는 말을 들은 스폰지밥은 절친 뚱이와 함께 해적선을 찾아 위험천만한 모험을 떠난다. 그 사실을 안 집게사장과 징징이, 핑핑이는 스폰지밥을 구하기 위해 따라나서는데…",
        "popularity": 189.9469,
        "poster_path": "/2QCGC4toQXYuIsWKj5vJQRAdPjd.jpg",
        "release_date": "2025-12-16",
        "title": "스폰지밥 무비: 네모바지를 찾아서",
        "video": false,
        "vote_average": 6.524,
        "vote_count": 103
      },
      {
        "adult": false,
        "backdrop_path": "/7nfpkR9XsQ1lBNCXSSHxGV7Dkxe.jpg",
        "genre_ids": [16, 35, 12, 10751, 9648],
        "id": 1084242,
        "original_language": "en",
        "original_title": "Zootopia 2",
        "overview": "미스터리한 뱀 게리가 나타난 순간, 주토피아가 다시 흔들리기 시작했다! 혼란에 빠진 도시를 구하기 위해 환상의 콤비 주디와 닉이 잠입 수사에 나서고 상상 그 이상의 진실과 위협을 마주하게 되는데...!",
        "popularity": 175.0638,
        "poster_path": "/ib6v6qUXzez1x2qIOLN7C0yJNPQ.jpg",
        "release_date": "2025-11-26",
        "title": "주토피아 2",
        "video": false,
        "vote_average": 7.583,
        "vote_count": 1163
      },
      {
        "adult": false,
        "backdrop_path": "/gQimJqYMKCkwHIo8wwYKhmnCfBr.jpg",
        "genre_ids": [28, 80, 53],
        "id": 1242501,
        "original_language": "en",
        "original_title": "Icefall",
        "overview": "극한의 추위가 몰아치는 북미 오지. 젊은 야생동물 관리인이 베테랑 밀렵꾼을 체포하며 사건이 시작된다. 밀렵꾼은 우연히 얼어붙은 호수 아래 추락한 비행기와 수백만 달러의 현금이 있다는 엄청난 비밀을 털어놓는다.  현금의 소문은 순식간에 퍼지고, 부패한 경찰부터 무자비한 범죄자들까지 현장으로 몰려든다. 눈앞의 돈을 차지하려는 인간들의 욕망은 극에 달하고, 추락 지점인 위험천만한 얼음 호수는 삽시간에 아비규환으로 변한다.  언제 깨질지 모르는 살얼음판 위에서, 살아남기 위해 한 팀이 된 관리인과 밀렵꾼은 현금과 목숨을 건 최후의 생존 게임을 시작한다. 과연 그들은 서로를 믿고 이 얼음 지옥에서 탈출할 수 있을까?",
        "popularity": 163.8917,
        "poster_path": "/5jqga2F2nkBHWM4Ip5qha8gANpJ.jpg",
        "release_date": "2025-10-16",
        "title": "아이스폴",
        "video": false,
        "vote_average": 6.381,
        "vote_count": 101
      },
      {
        "adult": false,
        "backdrop_path": "/sK3z0Naed3H1Wuh7a21YRVMxYqt.jpg",
        "genre_ids": [9648, 53],
        "id": 1368166,
        "original_language": "en",
        "original_title": "The Housemaid",
        "overview": "과거를 숨긴 채 완벽한 저택의 가정부로 들어간 밀리가 이상한 행동을 보이는 아내 니나와 그런 아내를 이해하는 모범적인 남편 앤드루와 얽히며 닫힌 문 뒤의 거짓과 마주하게 되는 월드 베스트셀러 원작의 고자극 미스터리 스릴러",
        "popularity": 178.8952,
        "poster_path": "/fUDX16A4fJXmAuUA5t0pnqzXS0b.jpg",
        "release_date": "2025-12-18",
        "title": "하우스메이드",
        "video": false,
        "vote_average": 7.086,
        "vote_count": 504
      },
      {
        "adult": false,
        "backdrop_path": "/ykigHs1OIyqqV04zfFqIlSHp546.jpg",
        "genre_ids": [53, 27, 28, 9648, 878],
        "id": 1412598,
        "original_language": "en",
        "original_title": "Killer Whale",
        "overview": "",
        "popularity": 157.1817,
        "poster_path": "/cqbXxAw9sUr4tJ5ffEwtnz6IL9o.jpg",
        "release_date": "2026-01-16",
        "title": "킬러 웨일",
        "video": false,
        "vote_average": 5.608,
        "vote_count": 37
      },
      {
        "adult": false,
        "backdrop_path": "/vMxOmgmBGegjVObjlb8ugsjGgkD.jpg",
        "genre_ids": [10752, 28, 18],
        "id": 1252037,
        "original_language": "de",
        "original_title": "Der Tiger",
        "overview": "1943년 동부 전선. 독일군 티거 전차 분대는 치열한 최전선 너머로 침투해야 하는 위험한 임무를 맡는다. 그들은 생사를 장담할 수 없는 무인 지대를 헤쳐 나가며 적과 내면의 악마를 동시에 마주해야 한다.",
        "popularity": 110.3172,
        "poster_path": "/swNuqlHua7uLgV6ulS4t2RGP2sd.jpg",
        "release_date": "2025-09-18",
        "title": "전차 티거",
        "video": false,
        "vote_average": 7.006,
        "vote_count": 272
      },
      {
        "adult": false,
        "backdrop_path": "/iZLqwEwUViJdSkGVjePGhxYzbDb.jpg",
        "genre_ids": [878, 53],
        "id": 755898,
        "original_language": "en",
        "original_title": "War of the Worlds",
        "overview": "전설적인 동명 소설을 새롭게 재해석한 이번 작품은 거대한 침공의 서막을 알린다. 에바 롱고리아와 전설적인 래퍼이자 배우 아이스 큐브, 그리고 마이클 오닐과 이만 벤슨이 합류해, 기술과 감시, 사생활이라는 현대적 주제를 아우르는 짜릿한 우주급 모험을 선보인다.",
        "popularity": 133.7598,
        "poster_path": "/yvirUYrva23IudARHn3mMGVxWqM.jpg",
        "release_date": "2025-07-29",
        "title": "우주전쟁",
        "video": false,
        "vote_average": 4.229,
        "vote_count": 860
      },
      {
        "adult": false,
        "backdrop_path": "/1RgPyOhN4DRs225BGTlHJqCudII.jpg",
        "genre_ids": [16, 28, 14],
        "id": 1311031,
        "original_language": "ja",
        "original_title": "劇場版「鬼滅の刃」無限城編 第一章 猗窩座再来",
        "overview": "혈귀로 변해버린 여동생 네즈코를 인간으로 되돌리기 위해 혈귀를 사냥하는 조직인 《귀살대》에 입대한 카마도 탄지로. 입대 후 동료인 아가츠마 젠이츠, 하시비라 이노스케와 함께 많은 혈귀와 싸우고, 성장하면서 세 사람의 우정과 유대는 깊어진다. 탄지로는 《귀살대》 최고위 검사인 《주》와도 함께 싸웠다. 「무한열차」에서는 염주・렌고쿠 쿄쥬로, 「유곽」에서는 음주・우즈이 텐겐, 「도공 마을」에서는 하주・토키토 무이치로, 연주・칸로지 미츠리와 함께 혈귀를 상대로 격렬한 전투를 벌였다. 그 후 다가올 혈귀와의 결전에 대비해 귀살대원들과 함께 《주》가 주도하는 합동 강화 훈련에 참가해 훈련을 받던 도중 《귀살대》의 본부인 우부야시키 저택에 나타난 키부츠지 무잔. 어르신의 위기에 달려온 《주》들과 탄지로였지만, 무잔의 술수로 의문의 공간으로 떨어지고 말았는데. 탄지로 일행이 떨어진 곳, 그곳은 혈귀의 본거지 《무한성》─ “귀살대”와 “혈귀”의 최종 결전의 포문이 열린다.",
        "popularity": 108.6302,
        "poster_path": "/m6Dho6hDCcL5KI8mOQNemZAedFI.jpg",
        "release_date": "2025-07-18",
        "title": "극장판 귀멸의 칼날: 무한성편",
        "video": false,
        "vote_average": 7.671,
        "vote_count": 678
      },
      {
        "adult": false,
        "backdrop_path": "/xGbNoh7aWmU81oYuxJoFI07Rz5I.jpg",
        "genre_ids": [28, 53, 80],
        "id": 1326878,
        "original_language": "en",
        "original_title": "Strangers",
        "overview": "",
        "popularity": 236.8364,
        "poster_path": "/ohpuwSBMgP44OPduPkpOtLxh90w.jpg",
        "release_date": "2024-08-16",
        "title": "Strangers",
        "video": false,
        "vote_average": 5,
        "vote_count": 16
      },
      {
        "adult": false,
        "backdrop_path": "/nAxGnGHOsfzufThz20zgmRwKur3.jpg",
        "genre_ids": [27, 28, 53],
        "id": 1233413,
        "original_language": "en",
        "original_title": "Sinners",
        "overview": "1932년, 시카고 갱단의 생활을 정리하고 고향 미시시피로 돌아온 쌍둥이 형제 스모크와 스택은 큰돈을 벌기 위해 술집 주크 조인트를 운영하기로 한다. 화려한 오프닝 파티가 열리는 밤, 천부적인 재능을 지닌 새미의 노래로 파티의 열기는 점점 뜨거워지고 초대하지 않은 불청객 일행이 찾아오는데…",
        "popularity": 108.8286,
        "poster_path": "/5Tj7729s3MLmzNnAzaHSCWtzj5o.jpg",
        "release_date": "2025-04-16",
        "title": "씨너스: 죄인들",
        "video": false,
        "vote_average": 7.494,
        "vote_count": 3322
      },
      {
        "adult": false,
        "backdrop_path": "/dT1p0K1szMAUBuE2bibouDQdNb8.jpg",
        "genre_ids": [27, 53, 878],
        "id": 1272837,
        "original_language": "en",
        "original_title": "28 Years Later: The Bone Temple",
        "overview": "분노 바이러스로부터 격리된 섬 홀리아일랜드로 돌아가지 않고 본토에 남기로 한 스파이크, 감염자와 공존하며 살아가는 켈슨 박사, 정체불명 인간 집단의 리더 지미가 얽히고 설키며 벌어지는 이야기",
        "popularity": 97.6114,
        "poster_path": "/ubgOSHAEhv1ds8BNHodhCcI13oH.jpg",
        "release_date": "2026-01-14",
        "title": "28년 후: 뼈의 사원",
        "video": false,
        "vote_average": 7.2,
        "vote_count": 219
      },
      {
        "adult": false,
        "backdrop_path": "/4BtL2vvEufDXDP4u6xQjjQ1Y2aT.jpg",
        "genre_ids": [28, 80, 18, 53],
        "id": 1419406,
        "original_language": "zh",
        "original_title": "捕风追影",
        "overview": "첨단 감시 시스템과 삼엄한 보안망을 무력화하고, 수십억을 탈취한 정체불명의 범죄 조직. 통제 불능의 범죄에 마카오 경찰은 결국 은퇴한 전설의 범죄 추적 전문가 ‘황더중’에게 도움을 요청한다. 황더중은 신입 경찰 ‘허추궈’와 함께 최정예 감시반을 구성해, 범죄 조직의 수장 ‘푸룽성’을 추적하기 시작한다. 하지만 수사망이 조여올수록 상대의 덫과 함정은 더욱 교묘해지고, 예상치 못한 반격 속에 황더중 역시 추적당하기 시작하는데…",
        "popularity": 102.1401,
        "poster_path": "/pUCkdO40PWHdvU1GEYV6ywY7li2.jpg",
        "release_date": "2025-08-16",
        "title": "포풍추영",
        "video": false,
        "vote_average": 7.189,
        "vote_count": 331
      },
      {
        "adult": false,
        "backdrop_path": "/wCwZ4ljSsWyZyTiyk1tGQtBHTDx.jpg",
        "genre_ids": [28, 18],
        "id": 1511417,
        "original_language": "te",
        "original_title": "Baahubali: The Epic",
        "overview": "",
        "popularity": 89.3604,
        "poster_path": "/z9YIo2qscyaXYgRqIdRJtND3bw8.jpg",
        "release_date": "2025-10-29",
        "title": "Baahubali: The Epic",
        "video": false,
        "vote_average": 6.173,
        "vote_count": 26
      },
      {
        "adult": false,
        "backdrop_path": "/ufqytAlziHq5pljKByGJ8IKhtEZ.jpg",
        "genre_ids": [53, 80, 9648],
        "id": 425274,
        "original_language": "en",
        "original_title": "Now You See Me: Now You Don't",
        "overview": "한때 더러운 방식으로 돈을 모으는 재벌들을 시원하게 혼내주던 마술사기단 ‘포 호스맨’. 은퇴 후 평범한 삶을 살고 있던 그들에게 새로운 임무를 알리는 의미심장한 카드가 배달된다. 그렇게 다시 모이게 된 오리지널 ‘포 호스맨’은 자신들을 흉내 내던 신예 마술사들까지 영입하며 미션을 준비한다. 그들의 목표는 무기 밀매, 자금 세탁 등 더러운 돈에 물든 ‘하트 다이아몬드’를 훔치는 것. 하지만 다이아몬드를 훔치고, 통쾌한 쇼를 선보이려는 이들 앞에는 수많은 함정이 펼쳐지는데…",
        "popularity": 87.6376,
        "poster_path": "/dECA069mRikkghzgSBsM0cvic4F.jpg",
        "release_date": "2025-11-12",
        "title": "나우 유 씨 미 3",
        "video": false,
        "vote_average": 6.585,
        "vote_count": 943
      },
      {
        "adult": false,
        "backdrop_path": "/oIJjO1CvEdTMFNkWfHaV0RB584G.jpg",
        "genre_ids": [28, 80, 53],
        "id": 628847,
        "original_language": "en",
        "original_title": "Trap House",
        "overview": "텍사스주 엘패소에서 마약단속국 비밀 요원이 파트너와 대담하기 짝이 없는 도적단을 추격한다. 도둑의 정체는 요원들의 반항심 가득한 10대 자녀들로, 이들은 부모의 전략과 극비 정보를 이용하여 위험한 카르텔을 강탈하기 시작한다.",
        "popularity": 87.0096,
        "poster_path": "/6tpAPeuuqbVnYWWPoOLEDLSBU7a.jpg",
        "release_date": "2025-11-14",
        "title": "트랩 하우스",
        "video": false,
        "vote_average": 6.612,
        "vote_count": 174
      },
      {
        "adult": false,
        "backdrop_path": "/tVwFrpeGPYyk75rS82benPjtK6.jpg",
        "genre_ids": [28, 12, 14],
        "id": 1131759,
        "original_language": "ko",
        "original_title": "전지적 독자 시점",
        "overview": "10년 이상 연재된 소설이 완결된 날 소설 속 세계가 현실이 되어 버리고, 유일한 독자였던 ‘김독자’가 소설의 주인공 ‘유중혁’ 그리고 동료들과 함께 멸망한 세계에서 살아남기 위한 이야기.",
        "popularity": 86.2738,
        "poster_path": "/lWQRM7IOCyJT9E5kOnoUvZNELHQ.jpg",
        "release_date": "2025-07-23",
        "title": "전지적 독자 시점",
        "video": false,
        "vote_average": 6.6,
        "vote_count": 50
      }
    ],
    "total_pages": 54832,
    "total_results": 1096638
  }
}
